{
	"version": "2",
	"sources": {
		"fusion": {
			"displayName": "fusion",
			"sourceType": "fusion"
		}
	},

	"sourceTypes": {
		"fusion": {
			"eventTypes": {
				"all": {
					"displayName": "all",
					"sourceNames": [],
					"fields": []
				}
			},
			"fields": {},
			"fieldTypes": {
				"DateTime": {
					"operators": [
						"equals",
						"greaterThanOrEqual",
						"lessThanOrEqual",
						"inRange"
					]
				},
				"Number": {
					"operators": [
						"equals",
						"notEqual",
						"greaterThan",
						"greaterThanOrEqual",
						"lessThan",
						"lessThanOrEqual",
						"inRange",
						"in",
						"notIn"
					],
					"regex": "[-+]?[0-9]*\\.?[0-9]+"
				},
				"Text": {
					"quote": false,
					"operators": [
						"equals",
						"notEqual",
						"contains",
						"notContains",
						"in",
						"notIn",
						"isEmpty",
						"isNotEmpty",
						"startsWith",
						"endsWith",
						"rlike"
					]
				},
				"LongText": {
					"quote": false,
					"operators": [
						"equals",
						"notEqual",
						"contains",
						"notContains",
						"in",
						"notIn",
						"isEmpty",
						"isNotEmpty",
						"startsWith",
						"endsWith"
					]
				},
				"Array": {
					"baseType": "Text",
					"operators": [
						"equals",
						"notEqual",
						"contains",
						"notContains",
						"in",
						"notIn",
						"isEmpty",
						"isNotEmpty",
						"startsWith",
						"endsWith"
					]
				},
				"Enum": {
					"operators": [
						"equals",
						"notEqual",
						"in",
						"notIn"
					]
				},
				"IP": {
					"baseType": "Text",
					"operators": [
						"equals",
						"notEqual",
						"in",
						"notIn",
						"rlike"
					]
				},
				"Boolean": {
					"baseType": "Text",
					"operators": [
						"equals",
						"notEqual"
					]
				},
				"CellId": {
					"baseType": "Text",
					"operators": [
						"equals",
						"notEqual",
						"contains",
						"notContains",
						"in",
						"notIn",
						"isEmpty",
						"isNotEmpty",
						"startsWith",
						"endsWith"
					]
				},
				"Location": {
					"operators": [
						"geoPoly"
					]
				},
				"GeoPoint": {
					"baseType": "Location",
					"operators": [
						"geoPoly"
					]
				},
				"GeoShape": {
					"baseType": "Location",
					"operators": [
						
					]
				},
				"Set": {
					"baseType": "Text",
					"operators": [
						"equals",
						"notEqual",
						"contains",
						"notContains",
						"in",
						"notIn",
						"isEmpty",
						"isNotEmpty",
						"startsWith",
						"endsWith"
					]
				},
				"eventType": {
					"baseType": "Enum",
					"operators": [
						"equals",
						"notEqual",
						"in",
						"notIn"
					]
				}
			},
			"operators": {
				"equals": {
					"displayName": "Equals",
					"sourceExpr": "{0} = {1}",
					"solrSourceExpr": "{0} : \"{1}\"",
					"numTerms": 1
				},
				"notEqual": {
					"displayName": "Not Equals",
					"sourceExpr": "{0} <> {1}",
					"solrSourceExpr": "-{0} : \"{1}\"",
					"numTerms": 1
				},
				"contains": {
					"displayName": "Contains",
					"sourceExpr": "{0} like {1}",
					"solrSourceExpr": "{0} : *{1}*",
					"numTerms": 1
				},
				"startsWith": {
					"displayName": "Starts With",
					"sourceExpr": "{0} like {1}",
					"solrSourceExpr": "{0} : {1}*",
					"numTerms": 1
				},
				"endsWith": {
					"displayName": "Ends With",
					"sourceExpr": "{0} like {1}",
					"solrSourceExpr": "{0} : *{1}",
					"numTerms": 1
				},
				"notContains": {
					"displayName": "Does Not Contain",
					"sourceExpr": "{0} like {1}",
					"solrSourceExpr": "-{0} : *{1}*",
					"numTerms": 1
				},
				"rlike": {
					"displayName": "Matches Regex",
					"sourceExpr": "{0} like {1}",
					"solrSourceExpr":"{0} : {1}",
					"numTerms": 1
				},
				"greaterThan": {
					"displayName": "Greater Than",
					"sourceExpr": "{0} > {1}",
					"solrSourceExpr": "{0} : {{1} TO *}",
					"numTerms": 1
				},
				"greaterThanOrEqual": {
					"displayName": "Greater Than or Equals",
					"sourceExpr": "{0} >= {1}",
					"solrSourceExpr": "{0} : [{1} TO *]",
					"numTerms": 1
				},
				"lessThan": {
					"displayName": "Less Than",
					"sourceExpr": "{0} < {1}",
					"solrSourceExpr": "{0} : {* TO {1}}",
					"numTerms": 1
				},
				"lessThanOrEqual": {
					"displayName": "Less Than or Equals",
					"sourceExpr": "{0} <= {1}",
					"solrSourceExpr": "{0} : [* TO {1}]",
					"numTerms": 1
				},
				"inRange": {
					"displayName": "Between",
					"sourceExpr": " {0} BETWEEN {L} AND  {R}",
					"solrSourceExpr": "{0} : [{L} TO {R}]",
					"numTerms": 2
				},
				"in": {
					"displayName": "In",
					"sourceExpr": "{0} IN ({*})",
					"solrSourceExpr": "{0} : ({*})",
					"numTerms": 1
				},
				"notIn": {
					"displayName": "Not In",
					"sourceExpr": "{0} NOT IN ({*})",
					"solrSourceExpr": "-{0} : ({*})",
					"numTerms": 1
				},
				"isEmpty": {
					"displayName": "Is Empty",
					"sourceExpr": "{0} IS NULL",
					"solrSourceExpr": "-{0} : * OR {0} : \"\"",
					"numTerms": 0
				},
				"isNotEmpty": {
					"displayName": "Is Not Empty",
					"sourceExpr": "{0} IS NOT NULL",
					"solrSourceExpr": "{0} : * OR {0} : \"\"",
					"numTerms": 0,
					"metrics": []
				},
                "geoPoly": {
                    "displayName": "geo Poly",
                    "sourceExpr": "ST_Within({0}, ST_GeomFromText('POLYGON({*})'))",  
                    "solrSourceExpr": "{0} : ({*})",
                    "numTerms": 1
                }
			}
		}
	}
}
