{"properties": [
  {
    "name": "application.oauth2.refreshtoken.validity",
    "type": "java.lang.String",
    "description": "A description for 'application.oauth2.refreshtoken.validity'"
  },
  {
    "name": "application.oauth2.token.validity",
    "type": "java.lang.String",
    "description": "A description for 'application.oauth2.token.validity'"
  },
  {
    "name": "application.oauth2.scope.type",
    "type": "java.lang.String",
    "description": "A description for 'application.oauth2.scope.type'"
  },
  {
    "name": "application.allowed.origins",
    "type": "java.lang.String",
    "description": "A description for 'application.allowed.origins'"
  },
  {
    "name": "application.allowed.headers",
    "type": "java.lang.String",
    "description": "A description for 'application.allowed.headers'"
  },
  {
    "name": "application.allowed.methods",
    "type": "java.lang.String",
    "description": "A description for 'application.allowed.methods'"
  },
  {
    "name": "application.oauth2.client.id",
    "type": "java.lang.String",
    "description": "A description for 'application.oauth2.client.id'"
  },
  {
    "name": "application.oauth2.grant.type1",
    "type": "java.lang.String",
    "description": "A description for 'application.oauth2.grant.type1'"
  },
  {
    "name": "application.oauth2.grant.type1",
    "type": "java.lang.String",
    "description": "A description for 'application.oauth2.grant.type1'"
  },
  {
    "name": "application.oauth2.client.secret",
    "type": "java.lang.String",
    "description": "A description for 'application.oauth2.client.secret'"
  },
  {
    "name": "application.oauth2.client.secret",
    "type": "java.lang.String",
    "description": "A description for 'application.oauth2.client.secret'"
  },
  {
    "name": "application.oauth2.grant.type2",
    "type": "java.lang.String",
    "description": "A description for 'application.oauth2.grant.type2'"
  },
  {
    "name": "spring.user.datasource.driver-class-name",
    "type": "java.lang.String",
    "description": "A description for 'spring.user.datasource.driver-class-name'"
  },
  {
    "name": "spring.user.datasource.driver-class-name",
    "type": "java.lang.String",
    "description": "A description for 'spring.user.datasource.driver-class-name'"
  },
  {
    "name": "application.oauth2.authorization.code",
    "type": "java.lang.String",
    "description": "A description for 'application.oauth2.authorization.code'"
  },
  {
    "name": "application.oauth2.implicit",
    "type": "java.lang.String",
    "description": "A description for 'application.oauth2.implicit'"
  },
  {
    "name": "application.oauth2.implicit",
    "type": "java.lang.String",
    "description": "A description for 'application.oauth2.implicit'"
  },
  {
    "name": "application.oauth2.scope.read",
    "type": "java.lang.String",
    "description": "A description for 'application.oauth2.scope.read'"
  },
  {
    "name": "application.oauth2.scope.write",
    "type": "java.lang.String",
    "description": "A description for 'application.oauth2.scope.write'"
  },
  {
    "name": "application.oauth2.scope.write",
    "type": "java.lang.String",
    "description": "A description for 'application.oauth2.scope.write'"
  },
  {
    "name": "application.oauth2.scope.trust",
    "type": "java.lang.String",
    "description": "A description for 'application.oauth2.scope.trust'"
  }
]}